…
``` r
# hey R, for the following, use ces2020_selected please!
ces2020_selected %>%
  
  # whatever calculation I tell you to do, please
  # do it grouped--- that is, only within entries
  # with the same state FIPS code.
  group_by(state_fips) %>%
  
  # could you tell me how many entries I have per
  # state?
  summarise(n = n())
```

    ## # A tibble: 51 x 2
    ##    state_fips     n
    ##    <chr>      <int>
    ##  1 01           947
    ##  2 02           115
    ##  3 04          1463
    ##  4 05           536
    ##  5 06          5035
    ##  6 08          1061
    ##  7 09           642
    ##  8 10           240
    ##  9 11           197
    ## 10 12          4615
    ## # ... with 41 more rows
…
``` r
post_aggregate <- ces2020_selected %>%
  group_by(state_fips) %>%
  
  # give me the mean of tookpost_recoded 
  # for each state, and make that a new
  # variable called mean_post
  summarise(mean_post = mean(tookpost_recoded))

# let's take a look!
post_aggregate
```

    ## # A tibble: 51 x 2
    ##    state_fips mean_post
    ##    <chr>          <dbl>
    ##  1 01             0.796
    ##  2 02             0.774
    ##  3 04             0.881
    ##  4 05             0.772
    ##  5 06             0.842
    ##  6 08             0.866
    ##  7 09             0.864
    ##  8 10             0.854
    ##  9 11             0.792
    ## 10 12             0.851
    ## # ... with 41 more rows
…
You try drawing a map of the U.S. from scratch without guidlines. It’s
hard! `urbanmapr` helps by letting us pull from its database. Below, I
use our state_fips column to pull geographic details from `urbanmapr`. I
can do this because `urbanmapr` has a databse with a column named
state_fips (almost like I named it the same on purpose!).

``` r
post_map <- left_join(post_aggregate, 
                      states, by = "state_fips")

post_map
```

    ## # A tibble: 83,933 x 10
    ##    state_fips mean_post  long   lat order hole  piece group state_abbv
    ##    <chr>          <dbl> <dbl> <dbl> <int> <lgl> <fct> <fct> <chr>     
    ##  1 01             0.796 -88.5  31.9     1 FALSE 1     01.1  AL        
    ##  2 01             0.796 -88.5  31.9     2 FALSE 1     01.1  AL        
    ##  3 01             0.796 -88.5  31.9     3 FALSE 1     01.1  AL        
    ##  4 01             0.796 -88.5  32.0     4 FALSE 1     01.1  AL        
    ##  5 01             0.796 -88.5  32.0     5 FALSE 1     01.1  AL        
    ##  6 01             0.796 -88.5  32.1     6 FALSE 1     01.1  AL        
    ##  7 01             0.796 -88.4  32.2     7 FALSE 1     01.1  AL        
    ##  8 01             0.796 -88.4  32.2     8 FALSE 1     01.1  AL        
    ##  9 01             0.796 -88.4  32.2     9 FALSE 1     01.1  AL        
    ## 10 01             0.796 -88.4  32.3    10 FALSE 1     01.1  AL        
    ## # ... with 83,923 more rows, and 1 more variable: state_name <chr>
…
