Making maps with the CES
…
Before we move forward, I want to see what sample sizes we’re working with. I can do this with the lovely dplyr and using piping.

# hey R, for the following, use ces2020_selected please!
ces2020_selected %>%
  
  # whatever calculation I tell you to do, please
  # do it grouped--- that is, only within entries
  # with the same state FIPS code.
  group_by(state_fips) %>%
  
  # could you tell me how many entries I have per
  # state?
  summarise(n = n())

# A tibble: 51 × 2
   state_fips     n
   <chr>      <int>
 1 01           947
 2 02           115
 3 04          1463
 4 05           536
 5 06          5035
 6 08          1061
 7 09           642
 8 10           240
 9 11           197
10 12          4615
# ℹ 41 more rows
…
Interesting! It’s cool to see how the CES samples across the United States. Because I’m interested in just looking at the CES as is (and not using the CES to make a hypothesis about Americans writ large), I don’t need to do any other steps here. These numbers will be good to keep in mind as we calculate what percentage of respondents took the post-election survey by state. Actually, let’s go ahead and calculate that with dplyr!

post_aggregate <- ces2020_selected %>%
  group_by(state_fips) %>%
  
  # give me the mean of tookpost_recoded 
  # for each state, and make that a new
  # variable called mean_post
  summarise(mean_post = mean(tookpost_recoded))

# let's take a look!
post_aggregate

# A tibble: 51 × 2
   state_fips mean_post
   <chr>          <dbl>
 1 01             0.796
 2 02             0.774
 3 04             0.881
 4 05             0.772
 5 06             0.842
 6 08             0.866
 7 09             0.864
 8 10             0.854
 9 11             0.792
10 12             0.851
# ℹ 41 more rows

Now it’s time to use the urbnmapr package developed by The Urban Institute. Mapping is actually quite complicated! Even though we now have a summary table that tells us what percentage of respondents took the post-election survey for each state, R still needs to be able to draw the map! How will it know what states are shaped like? How boundaries intersect? How will it make the map pretty?

You try drawing a map of the U.S. from scratch without guidlines. It’s hard! urbnmapr helps by letting us pull from its database. Below, I use our state_fips column to pull geographic details from urbnmapr. I can do this because urbnmapr has a databse with a column named state_fips (almost like I named it the same on purpose!).

post_map <- left_join(post_aggregate, 
                      urbnmapr::states, by = "state_fips")

post_map

# A tibble: 83,933 × 10
   state_fips mean_post  long   lat order hole  piece group state_abbv
   <chr>          <dbl> <dbl> <dbl> <int> <lgl> <fct> <fct> <chr>     
 1 01             0.796 -88.5  31.9     1 FALSE 1     01.1  AL        
 2 01             0.796 -88.5  31.9     2 FALSE 1     01.1  AL        
 3 01             0.796 -88.5  31.9     3 FALSE 1     01.1  AL        
 4 01             0.796 -88.5  32.0     4 FALSE 1     01.1  AL        
 5 01             0.796 -88.5  32.0     5 FALSE 1     01.1  AL        
 6 01             0.796 -88.5  32.1     6 FALSE 1     01.1  AL        
 7 01             0.796 -88.4  32.2     7 FALSE 1     01.1  AL        
 8 01             0.796 -88.4  32.2     8 FALSE 1     01.1  AL        
 9 01             0.796 -88.4  32.2     9 FALSE 1     01.1  AL        
10 01             0.796 -88.4  32.3    10 FALSE 1     01.1  AL        
# ℹ 83,923 more rows
# ℹ 1 more variable: state_name <chr>
…
